c,var
0,0.52630305
1,0.48214293
2,0.3397654
3,0.33066306
4,0.00061856123
5,0.00043116766
6,0.00036529644
7,0.0001836147
8,7.247951e-05
9,3.7490794e-05
10,2.0500878e-05
11,1.7572856e-05
12,1.2561252e-05
13,7.880695e-06
14,6.076982e-06
15,3.2000657e-06
