{
    "architecture": {
        "latent_width": 4,
        "depth": 16,
        "latent": 1,
        "colors": 3,
        "activation_approximation": null,
        "include_decoder": true,
        "reduced_size": null,
        "batch_norm": false,
        "width": 128
    },
    "train": {
        "epochs": 5000,
        "lr": 0.0001,
        "batch_size": 128,
        "weight_decay": 1e-05,
        "weight_encoder_reg": 0,
        "weight_decoder_reg": 0,
        "weight_constraints": null,
        "num_components": [
            6,
            9
        ],
        "seed": 42,
        "reference_loss": 0.002,
        "dataset_size": 10000
    },
    "data": {
        "manifold": "special_orthogonal",
        "renderer": "cow_3d",
        "renderer_args": {
            "im_width": 128
        }
    },
    "test": {
        "data": "rotations_max_30000.pickle",
        "dataset_size": 5000,
        "batch_size": 128
    }
}