{
  "architecture": {
    "latent_width": 4,
    "depth": 16,
    "latent": 1,
    "colors": 3,
    "activation_approximation": null,
    "include_decoder": true,
    "reduced_size": null
  },
  "train": {
    "epochs": 5000,
    "lr": 1e-4,
    "batch_size": 128,
    "weight_decay": 1e-5,
    "weight_encoder_reg": 0.1,
    "weight_decoder_reg": 0,
    "flatness_weight": 1,
    "weight_constraints": null,
    "sampling_params": {
      "eps_rel": 0.25,
      "eps_min_rel": 0.05
    },
    "num_components": [
      5, 11
    ],
    "seed": 42,
    "reference_loss": 0.002,
    "dataset_size": 10000,
    "early_stopping": null,
    "sampling_strategy": "rejection"
  },
  "data": {
    "manifold": "klein_bottle",
    "renderer": "klein_bottle_arc",
    "renderer_args": {
      "im_width": 128
    }
  },
  "test": {
    "data": "klein_bottle_max_30000.pickle",
    "dataset_size": 5000,
    "batch_size": 128
  }
}