{
    "architecture": {
        "latent_width": 4,
        "depth": 16,
        "latent": 1,
        "colors": 3,
        "activation_approximation": null,
        "include_decoder": false,
        "reduced_size": null,
        "width": 128
    },
    "train": {
        "epochs": 10000,
        "lr": 0.0001,
        "batch_size": 128,
        "weight_decay": 1e-05,
        "weight_encoder_reg": 1,
        "weight_decoder_reg": 0,
        "flatness_weight": 10,
        "weight_constraints": null,
        "sampling_params": {
            "eps_rel": 0.25,
            "eps_min_rel": 0.05
        },
        "num_components": [
            6,
            9
        ],
        "seed": 42,
        "reference_loss": null,
        "dataset_size": 10000,
        "early_stopping": {
            "quantity": "train_reg_loss",
            "patience": 20,
            "min_delta": 0.0
        },
        "sampling_strategy": "tangential"
    },
    "data": {
        "manifold": "special_orthogonal",
        "manifold_args": {
            "metric_scale": 0.5
        },
        "renderer": "cow_3d",
        "renderer_args": {
            "im_width": 128
        }
    },
    "test": {
        "data": "rotations_max_30000.pickle",
        "dataset_size": 5000,
        "batch_size": 128
    }
}