{
  "architecture": {
    "activation_approximation": null,
    "colors": 1,
    "depth": 16,
    "include_decoder": false,
    "latent": 1,
    "latent_width": 4,
    "reduced_size": null
  },
  "train": {
    "batch_size": 128,
    "dataset_size": 10000,
    "early_stopping": {
      "quantity": "train_reg_loss",
      "patience": 20,
      "min_delta": 0.00
    },
    "epochs": 10000,
    "flatness_weight": 0,
    "lr": 1e-4,
    "num_components": [2, 3],
    "sampling_params": {
      "eps_rel": 0.125,
      "eps_min_rel": 0.01
    },
    "reference_loss": null,
    "sampling_strategy": "rejection",
    "seed": 42,
    "weight_constraints": null,
    "weight_decay": 1e-5,
    "weight_decoder_reg": 0,
    "weight_encoder_reg": 1
  },
  "data": {
    "manifold": "hemisphere",
    "renderer": "hemisphere_sundial",
    "renderer_args": {
      "im_width": 64,
      "rod_gap": 0.1,
      "shadow_width": 0.1
    }
  },
  "test": {
    "data": null
  }
}